pre-training...
epoch:	0
epoch:	5
epoch:	10
epoch:	15
epoch:	20
epoch:	25
epoch:	30
epoch:	35
epoch:	40
epoch:	45
Times:	0	accuacy:	0.7141441
Times:	1	accuacy:	0.83898866
Times:	2	accuacy:	0.888565
Times:	3	accuacy:	0.9075715
Times:	4	accuacy:	0.9147233
Times:	5	accuacy:	0.9338853
Times:	6	accuacy:	0.94546795
Times:	7	accuacy:	0.9542522
Times:	8	accuacy:	0.95755595
Times:	9	accuacy:	0.9694108
Times:	10	accuacy:	0.97271454
Times:	11	accuacy:	0.97372514
Times:	12	accuacy:	0.9765625
Times:	13	accuacy:	0.978331
Times:	14	accuacy:	0.9857159
Times:	15	accuacy:	0.98561877
Times:	16	accuacy:	0.9845693
Times:	17	accuacy:	0.98847556
Times:	18	accuacy:	0.9908466
Times:	19	accuacy:	0.9899137
Times:	20	accuacy:	0.9920709
Times:	21	accuacy:	0.9896805
Times:	22	accuacy:	0.99347013
Times:	23	accuacy:	0.9902441
Times:	24	accuacy:	0.991002
Times:	25	accuacy:	0.9935868
Times:	26	accuacy:	0.99362564
Times:	27	accuacy:	0.99502486
Times:	28	accuacy:	0.9948694
Times:	29	accuacy:	0.99242073
Times:	30	accuacy:	0.99576336
Times:	31	accuacy:	0.9939171
Times:	32	accuacy:	0.9947139
Times:	33	accuacy:	0.9958411
Times:	34	accuacy:	0.99621034
Times:	35	accuacy:	0.994986
Times:	36	accuacy:	0.99710435
Times:	37	accuacy:	0.9957245
Times:	38	accuacy:	0.9945196
Times:	39	accuacy:	0.9961715
Times:	40	accuacy:	0.99574393
Times:	41	accuacy:	0.9967351
Times:	42	accuacy:	0.99768734
Times:	43	accuacy:	0.99589944
Times:	44	accuacy:	0.99677396
Times:	45	accuacy:	0.99669623
Times:	46	accuacy:	0.9965796
Times:	47	accuacy:	0.99551076
Times:	48	accuacy:	0.9973181
Times:	49	accuacy:	0.99729866
epoch:	0
epoch:	0	accuacy:	0.9991138
epoch:	1	accuacy:	0.9993956
epoch:	2	accuacy:	0.99962103
epoch:	3	accuacy:	0.99993587
epoch:	4	accuacy:	0.9995355
epoch:	5
epoch:	5	accuacy:	0.99950635
epoch:	6	accuacy:	0.99956274
epoch:	7	accuacy:	0.9996502
epoch:	8	accuacy:	0.99945587
epoch:	9	accuacy:	0.9998853
epoch:	10
epoch:	10	accuacy:	0.9997707
epoch:	11	accuacy:	0.99986976
epoch:	12	accuacy:	0.99948305
epoch:	13	accuacy:	0.99974346
epoch:	14	accuacy:	0.99988145
epoch:	15
epoch:	15	accuacy:	1.0
epoch:	16	accuacy:	0.9997493
epoch:	17	accuacy:	1.0
epoch:	18	accuacy:	1.0
epoch:	19	accuacy:	0.9999689
epoch:	20
epoch:	20	accuacy:	0.9999786
epoch:	21	accuacy:	0.99998254
epoch:	22	accuacy:	0.9999903
epoch:	23	accuacy:	1.0
epoch:	24	accuacy:	1.0
epoch:	25
epoch:	25	accuacy:	0.99999803
epoch:	26	accuacy:	0.9999747
epoch:	27	accuacy:	0.9999903
epoch:	28	accuacy:	0.99919933
epoch:	29	accuacy:	0.9995802
epoch:	30
epoch:	30	accuacy:	0.9999747
epoch:	31	accuacy:	0.9996735
